<svg xmlns="http://www.w3.org/2000/svg" xmlns:xlink="http://www.w3.org/1999/xlink" width="1024" height="500">\n<path  d="M 0 0
L 1024 0
L 1024 500
L 0 500
L 0 0" style="stroke-width:0;stroke:rgba(255,255,255,1.0);fill:rgba(255,255,255,1.0)"/><path  d="M 38 11
L 957 11
L 957 451
L 38 451
L 38 11" style="stroke-width:0;stroke:rgba(255,255,255,1.0);fill:rgba(255,255,255,1.0)"/><path  d="M 38 451
L 957 451" style="stroke-width:1;stroke:rgba(51,51,51,1.0);fill:none"/><path  d="M 38 451
L 38 456" style="stroke-width:1;stroke:rgba(51,51,51,1.0);fill:none"/><text x="5" y="473" style="stroke-width:0;stroke:none;fill:rgba(51,51,51,1.0);font-size:12.8px;font-family:'Roboto Medium',sans-serif">2017-03-28</text><path  d="M 153 451
L 153 456" style="stroke-width:1;stroke:rgba(51,51,51,1.0);fill:none"/><text x="120" y="473" style="stroke-width:0;stroke:none;fill:rgba(51,51,51,1.0);font-size:12.8px;font-family:'Roboto Medium',sans-serif">2017-04-01</text><path  d="M 268 451
L 268 456" style="stroke-width:1;stroke:rgba(51,51,51,1.0);fill:none"/><text x="235" y="473" style="stroke-width:0;stroke:none;fill:rgba(51,51,51,1.0);font-size:12.8px;font-family:'Roboto Medium',sans-serif">2017-04-05</text><path  d="M 383 451
L 383 456" style="stroke-width:1;stroke:rgba(51,51,51,1.0);fill:none"/><text x="350" y="473" style="stroke-width:0;stroke:none;fill:rgba(51,51,51,1.0);font-size:12.8px;font-family:'Roboto Medium',sans-serif">2017-04-09</text><path  d="M 498 451
L 498 456" style="stroke-width:1;stroke:rgba(51,51,51,1.0);fill:none"/><text x="465" y="473" style="stroke-width:0;stroke:none;fill:rgba(51,51,51,1.0);font-size:12.8px;font-family:'Roboto Medium',sans-serif">2017-04-13</text><path  d="M 613 451
L 613 456" style="stroke-width:1;stroke:rgba(51,51,51,1.0);fill:none"/><text x="580" y="473" style="stroke-width:0;stroke:none;fill:rgba(51,51,51,1.0);font-size:12.8px;font-family:'Roboto Medium',sans-serif">2017-04-17</text><path  d="M 728 451
L 728 456" style="stroke-width:1;stroke:rgba(51,51,51,1.0);fill:none"/><text x="695" y="473" style="stroke-width:0;stroke:none;fill:rgba(51,51,51,1.0);font-size:12.8px;font-family:'Roboto Medium',sans-serif">2017-04-21</text><path  d="M 843 451
L 843 456" style="stroke-width:1;stroke:rgba(51,51,51,1.0);fill:none"/><text x="810" y="473" style="stroke-width:0;stroke:none;fill:rgba(51,51,51,1.0);font-size:12.8px;font-family:'Roboto Medium',sans-serif">2017-04-25</text><path  d="M 957 451
L 957 456" style="stroke-width:1;stroke:rgba(51,51,51,1.0);fill:none"/><text x="924" y="473" style="stroke-width:0;stroke:none;fill:rgba(51,51,51,1.0);font-size:12.8px;font-family:'Roboto Medium',sans-serif">2017-04-29</text><text x="483" y="495" style="stroke-width:0;stroke:none;fill:rgba(51,51,51,1.0);font-size:12.8px;font-family:'Roboto Medium',sans-serif">Time</text><path  d="M 958 451
L 958 11" style="stroke-width:1;stroke:rgba(51,51,51,1.0);fill:none"/><path  d="M 958 451
L 963 451" style="stroke-width:1;stroke:rgba(51,51,51,1.0);fill:none"/><text x="968" y="457" style="stroke-width:0;stroke:none;fill:rgba(51,51,51,1.0);font-size:12.8px;font-family:'Roboto Medium',sans-serif">-0.14</text><path  d="M 958 409
L 963 409" style="stroke-width:1;stroke:rgba(51,51,51,1.0);fill:none"/><text x="968" y="415" style="stroke-width:0;stroke:none;fill:rgba(51,51,51,1.0);font-size:12.8px;font-family:'Roboto Medium',sans-serif">-0.12</text><path  d="M 958 368
L 963 368" style="stroke-width:1;stroke:rgba(51,51,51,1.0);fill:none"/><text x="968" y="374" style="stroke-width:0;stroke:none;fill:rgba(51,51,51,1.0);font-size:12.8px;font-family:'Roboto Medium',sans-serif">-0.11</text><path  d="M 958 330
L 963 330" style="stroke-width:1;stroke:rgba(51,51,51,1.0);fill:none"/><text x="968" y="336" style="stroke-width:0;stroke:none;fill:rgba(51,51,51,1.0);font-size:12.8px;font-family:'Roboto Medium',sans-serif">-0.10</text><path  d="M 958 288
L 963 288" style="stroke-width:1;stroke:rgba(51,51,51,1.0);fill:none"/><text x="968" y="294" style="stroke-width:0;stroke:none;fill:rgba(51,51,51,1.0);font-size:12.8px;font-family:'Roboto Medium',sans-serif">-0.08</text><path  d="M 958 250
L 963 250" style="stroke-width:1;stroke:rgba(51,51,51,1.0);fill:none"/><text x="968" y="256" style="stroke-width:0;stroke:none;fill:rgba(51,51,51,1.0);font-size:12.8px;font-family:'Roboto Medium',sans-serif">-0.07</text><path  d="M 958 209
L 963 209" style="stroke-width:1;stroke:rgba(51,51,51,1.0);fill:none"/><text x="968" y="215" style="stroke-width:0;stroke:none;fill:rgba(51,51,51,1.0);font-size:12.8px;font-family:'Roboto Medium',sans-serif">-0.05</text><path  d="M 958 170
L 963 170" style="stroke-width:1;stroke:rgba(51,51,51,1.0);fill:none"/><text x="968" y="176" style="stroke-width:0;stroke:none;fill:rgba(51,51,51,1.0);font-size:12.8px;font-family:'Roboto Medium',sans-serif">-0.04</text><path  d="M 958 129
L 963 129" style="stroke-width:1;stroke:rgba(51,51,51,1.0);fill:none"/><text x="968" y="135" style="stroke-width:0;stroke:none;fill:rgba(51,51,51,1.0);font-size:12.8px;font-family:'Roboto Medium',sans-serif">-0.02</text><path  d="M 958 90
L 963 90" style="stroke-width:1;stroke:rgba(51,51,51,1.0);fill:none"/><text x="968" y="96" style="stroke-width:0;stroke:none;fill:rgba(51,51,51,1.0);font-size:12.8px;font-family:'Roboto Medium',sans-serif">-0.01</text><path  d="M 958 49
L 963 49" style="stroke-width:1;stroke:rgba(51,51,51,1.0);fill:none"/><text x="968" y="55" style="stroke-width:0;stroke:none;fill:rgba(51,51,51,1.0);font-size:12.8px;font-family:'Roboto Medium',sans-serif">0.01</text><path  d="M 958 11
L 963 11" style="stroke-width:1;stroke:rgba(51,51,51,1.0);fill:none"/><text x="968" y="17" style="stroke-width:0;stroke:none;fill:rgba(51,51,51,1.0);font-size:12.8px;font-family:'Roboto Medium',sans-serif">0.02</text><text x="1008" y="203" style="stroke-width:0;stroke:none;fill:rgba(51,51,51,1.0);font-size:12.8px;font-family:'Roboto Medium',sans-serif" transform="rotate(90.00,1008,203)">Ratio/day</text><path  d="M 38 66
L 67 79
L 96 57
L 125 441
L 153 76
L 182 70
L 211 60
L 240 45
L 268 36
L 297 63
L 326 99
L 354 11
L 383 65
L 412 79
L 441 71
L 469 48
L 498 69
L 527 64
L 555 74
L 584 63
L 613 73
L 642 57
L 670 59
L 699 60
L 728 60
L 756 71
L 785 77
L 814 61
L 843 119
L 871 88
L 900 108
L 929 65
L 957 65
L 957 65
L 38 65
L 38 66" style="stroke-width:0;stroke:none;fill:rgba(0,116,217,0.1)"/><path  d="M 38 66
L 67 79
L 96 57
L 125 441
L 153 76
L 182 70
L 211 60
L 240 45
L 268 36
L 297 63
L 326 99
L 354 11
L 383 65
L 412 79
L 441 71
L 469 48
L 498 69
L 527 64
L 555 74
L 584 63
L 613 73
L 642 57
L 670 59
L 699 60
L 728 60
L 756 71
L 785 77
L 814 61
L 843 119
L 871 88
L 900 108
L 929 65
L 957 65" style="stroke-width:1;stroke:rgba(0,116,217,1.0);fill:none"/><path stroke-dasharray="5.0, 5.0" d="M 38 66
L 67 72
L 96 67
L 125 161
L 153 144
L 182 132
L 211 121
L 240 112
L 268 103
L 297 99
L 326 99
L 354 92
L 383 90
L 412 89
L 441 88
L 469 85
L 498 84
L 527 84
L 555 84
L 584 84
L 613 63
L 642 62
L 670 61
L 699 61
L 728 62
L 756 64
L 785 65
L 814 62
L 843 69
L 871 70
L 900 72
L 929 72
L 957 73" style="stroke-width:1;stroke:rgba(217,0,116,1.0);fill:none"/></svg>