<svg xmlns="http://www.w3.org/2000/svg" xmlns:xlink="http://www.w3.org/1999/xlink" width="1024" height="500">\n<path  d="M 0 0
L 1024 0
L 1024 500
L 0 500
L 0 0" style="stroke-width:0;stroke:rgba(255,255,255,1.0);fill:rgba(255,255,255,1.0)"/><path  d="M 38 11
L 947 11
L 947 451
L 38 451
L 38 11" style="stroke-width:0;stroke:rgba(255,255,255,1.0);fill:rgba(255,255,255,1.0)"/><path  d="M 38 451
L 947 451" style="stroke-width:1;stroke:rgba(51,51,51,1.0);fill:none"/><path  d="M 38 451
L 38 456" style="stroke-width:1;stroke:rgba(51,51,51,1.0);fill:none"/><text x="5" y="473" style="stroke-width:0;stroke:none;fill:rgba(51,51,51,1.0);font-size:12.8px;font-family:'Roboto Medium',sans-serif">2017-03-29</text><path  d="M 152 451
L 152 456" style="stroke-width:1;stroke:rgba(51,51,51,1.0);fill:none"/><text x="119" y="473" style="stroke-width:0;stroke:none;fill:rgba(51,51,51,1.0);font-size:12.8px;font-family:'Roboto Medium',sans-serif">2017-04-02</text><path  d="M 266 451
L 266 456" style="stroke-width:1;stroke:rgba(51,51,51,1.0);fill:none"/><text x="233" y="473" style="stroke-width:0;stroke:none;fill:rgba(51,51,51,1.0);font-size:12.8px;font-family:'Roboto Medium',sans-serif">2017-04-06</text><path  d="M 379 451
L 379 456" style="stroke-width:1;stroke:rgba(51,51,51,1.0);fill:none"/><text x="346" y="473" style="stroke-width:0;stroke:none;fill:rgba(51,51,51,1.0);font-size:12.8px;font-family:'Roboto Medium',sans-serif">2017-04-10</text><path  d="M 493 451
L 493 456" style="stroke-width:1;stroke:rgba(51,51,51,1.0);fill:none"/><text x="460" y="473" style="stroke-width:0;stroke:none;fill:rgba(51,51,51,1.0);font-size:12.8px;font-family:'Roboto Medium',sans-serif">2017-04-14</text><path  d="M 607 451
L 607 456" style="stroke-width:1;stroke:rgba(51,51,51,1.0);fill:none"/><text x="574" y="473" style="stroke-width:0;stroke:none;fill:rgba(51,51,51,1.0);font-size:12.8px;font-family:'Roboto Medium',sans-serif">2017-04-18</text><path  d="M 720 451
L 720 456" style="stroke-width:1;stroke:rgba(51,51,51,1.0);fill:none"/><text x="687" y="473" style="stroke-width:0;stroke:none;fill:rgba(51,51,51,1.0);font-size:12.8px;font-family:'Roboto Medium',sans-serif">2017-04-21</text><path  d="M 834 451
L 834 456" style="stroke-width:1;stroke:rgba(51,51,51,1.0);fill:none"/><text x="801" y="473" style="stroke-width:0;stroke:none;fill:rgba(51,51,51,1.0);font-size:12.8px;font-family:'Roboto Medium',sans-serif">2017-04-25</text><path  d="M 947 451
L 947 456" style="stroke-width:1;stroke:rgba(51,51,51,1.0);fill:none"/><text x="914" y="473" style="stroke-width:0;stroke:none;fill:rgba(51,51,51,1.0);font-size:12.8px;font-family:'Roboto Medium',sans-serif">2017-04-29</text><text x="478" y="495" style="stroke-width:0;stroke:none;fill:rgba(51,51,51,1.0);font-size:12.8px;font-family:'Roboto Medium',sans-serif">Time</text><path  d="M 948 451
L 948 11" style="stroke-width:1;stroke:rgba(51,51,51,1.0);fill:none"/><path  d="M 948 451
L 953 451" style="stroke-width:1;stroke:rgba(51,51,51,1.0);fill:none"/><text x="958" y="457" style="stroke-width:0;stroke:none;fill:rgba(51,51,51,1.0);font-size:12.8px;font-family:'Roboto Medium',sans-serif">580.00</text><path  d="M 948 410
L 953 410" style="stroke-width:1;stroke:rgba(51,51,51,1.0);fill:none"/><text x="958" y="416" style="stroke-width:0;stroke:none;fill:rgba(51,51,51,1.0);font-size:12.8px;font-family:'Roboto Medium',sans-serif">612.00</text><path  d="M 948 370
L 953 370" style="stroke-width:1;stroke:rgba(51,51,51,1.0);fill:none"/><text x="958" y="376" style="stroke-width:0;stroke:none;fill:rgba(51,51,51,1.0);font-size:12.8px;font-family:'Roboto Medium',sans-serif">644.00</text><path  d="M 948 330
L 953 330" style="stroke-width:1;stroke:rgba(51,51,51,1.0);fill:none"/><text x="958" y="336" style="stroke-width:0;stroke:none;fill:rgba(51,51,51,1.0);font-size:12.8px;font-family:'Roboto Medium',sans-serif">676.00</text><path  d="M 948 290
L 953 290" style="stroke-width:1;stroke:rgba(51,51,51,1.0);fill:none"/><text x="958" y="296" style="stroke-width:0;stroke:none;fill:rgba(51,51,51,1.0);font-size:12.8px;font-family:'Roboto Medium',sans-serif">708.00</text><path  d="M 948 249
L 953 249" style="stroke-width:1;stroke:rgba(51,51,51,1.0);fill:none"/><text x="958" y="255" style="stroke-width:0;stroke:none;fill:rgba(51,51,51,1.0);font-size:12.8px;font-family:'Roboto Medium',sans-serif">740.00</text><path  d="M 948 210
L 953 210" style="stroke-width:1;stroke:rgba(51,51,51,1.0);fill:none"/><text x="958" y="216" style="stroke-width:0;stroke:none;fill:rgba(51,51,51,1.0);font-size:12.8px;font-family:'Roboto Medium',sans-serif">771.00</text><path  d="M 948 170
L 953 170" style="stroke-width:1;stroke:rgba(51,51,51,1.0);fill:none"/><text x="958" y="176" style="stroke-width:0;stroke:none;fill:rgba(51,51,51,1.0);font-size:12.8px;font-family:'Roboto Medium',sans-serif">803.00</text><path  d="M 948 130
L 953 130" style="stroke-width:1;stroke:rgba(51,51,51,1.0);fill:none"/><text x="958" y="136" style="stroke-width:0;stroke:none;fill:rgba(51,51,51,1.0);font-size:12.8px;font-family:'Roboto Medium',sans-serif">835.00</text><path  d="M 948 90
L 953 90" style="stroke-width:1;stroke:rgba(51,51,51,1.0);fill:none"/><text x="958" y="96" style="stroke-width:0;stroke:none;fill:rgba(51,51,51,1.0);font-size:12.8px;font-family:'Roboto Medium',sans-serif">867.00</text><path  d="M 948 49
L 953 49" style="stroke-width:1;stroke:rgba(51,51,51,1.0);fill:none"/><text x="958" y="55" style="stroke-width:0;stroke:none;fill:rgba(51,51,51,1.0);font-size:12.8px;font-family:'Roboto Medium',sans-serif">899.00</text><path  d="M 948 11
L 953 11" style="stroke-width:1;stroke:rgba(51,51,51,1.0);fill:none"/><text x="958" y="17" style="stroke-width:0;stroke:none;fill:rgba(51,51,51,1.0);font-size:12.8px;font-family:'Roboto Medium',sans-serif">930.00</text><text x="1008" y="197" style="stroke-width:0;stroke:none;fill:rgba(51,51,51,1.0);font-size:12.8px;font-family:'Roboto Medium',sans-serif" transform="rotate(90.00,1008,197)">Upload (Gb)</text><path  d="M 38 435
L 39 435
L 39 435
L 40 435
L 41 434
L 42 433
L 43 430
L 44 429
L 46 429
L 47 428
L 48 428
L 49 428
L 50 427
L 52 427
L 53 424
L 54 422
L 55 422
L 56 422
L 58 421
L 59 421
L 60 420
L 61 418
L 62 418
L 62 418
L 63 418
L 64 416
L 65 415
L 67 414
L 68 414
L 69 413
L 70 413
L 71 413
L 72 413
L 73 412
L 74 411
L 75 410
L 77 409
L 78 409
L 79 409
L 80 407
L 81 406
L 83 405
L 84 403
L 85 403
L 86 402
L 87 401
L 88 400
L 90 399
L 91 398
L 92 397
L 93 396
L 94 395
L 96 394
L 97 393
L 98 392
L 99 391
L 100 391
L 101 390
L 103 388
L 104 387
L 105 386
L 106 383
L 107 377
L 109 375
L 110 374
L 111 368
L 112 366
L 113 365
L 115 359
L 116 358
L 117 355
L 118 383
L 119 382
L 120 444
L 122 441
L 123 439
L 124 438
L 125 437
L 126 429
L 128 427
L 129 427
L 130 426
L 131 425
L 132 422
L 133 421
L 135 418
L 136 416
L 137 416
L 138 415
L 139 414
L 141 413
L 142 413
L 143 412
L 144 411
L 145 410
L 146 410
L 148 409
L 149 407
L 150 406
L 151 406
L 152 403
L 154 402
L 155 401
L 156 401
L 157 401
L 158 400
L 160 399
L 161 399
L 162 399
L 163 397
L 164 396
L 165 396
L 167 395
L 168 394
L 169 393
L 170 393
L 171 392
L 173 389
L 174 387
L 175 386
L 176 384
L 177 383
L 178 382
L 180 381
L 181 379
L 182 378
L 183 377
L 184 377
L 186 376
L 187 376
L 188 374
L 189 373
L 190 373
L 191 373
L 193 371
L 194 370
L 195 368
L 196 368
L 197 368
L 199 368
L 200 368
L 201 368
L 202 368
L 203 368
L 205 367
L 206 367
L 207 366
L 208 366
L 209 366
L 210 366
L 212 365
L 213 365
L 214 365
L 215 364
L 216 364
L 218 364
L 219 364
L 220 364
L 221 364
L 222 363
L 223 363
L 225 363
L 226 363
L 227 363
L 228 363
L 229 363
L 231 362
L 232 362
L 233 362
L 234 361
L 235 361
L 237 361
L 238 361
L 239 360
L 240 360
L 241 360
L 242 360
L 244 360
L 245 360
L 246 359
L 247 359
L 248 359
L 250 359
L 251 358
L 252 357
L 253 357
L 254 357
L 255 357
L 257 356
L 258 356
L 259 356
L 260 355
L 261 355
L 263 355
L 264 354
L 265 354
L 266 353
L 267 353
L 268 352
L 270 352
L 271 352
L 272 352
L 273 351
L 274 351
L 276 351
L 277 351
L 278 351
L 279 351
L 280 350
L 282 350
L 283 350
L 284 350
L 285 349
L 286 349
L 287 349
L 289 348
L 290 346
L 291 346
L 292 344
L 293 343
L 295 342
L 296 341
L 297 340
L 298 340
L 299 339
L 300 339
L 302 339
L 303 339
L 304 338
L 305 337
L 306 337
L 308 337
L 309 336
L 310 335
L 311 334
L 312 333
L 313 332
L 315 331
L 316 330
L 317 330
L 318 328
L 319 328
L 321 327
L 322 325
L 323 323
L 324 321
L 325 319
L 327 318
L 328 317
L 329 316
L 330 315
L 331 315
L 332 314
L 334 313
L 335 311
L 336 310
L 337 308
L 338 306
L 340 305
L 341 303
L 342 301
L 343 299
L 344 297
L 345 296
L 347 294
L 348 293
L 349 292
L 350 289
L 351 288
L 353 285
L 354 282
L 355 281
L 356 280
L 357 279
L 358 279
L 360 278
L 361 278
L 362 277
L 363 276
L 364 275
L 366 274
L 367 274
L 368 272
L 369 272
L 370 271
L 372 271
L 373 270
L 374 269
L 375 267
L 376 267
L 377 266
L 379 266
L 380 266
L 381 265
L 382 264
L 383 264
L 385 264
L 386 262
L 387 261
L 388 261
L 389 259
L 390 258
L 392 258
L 393 258
L 394 258
L 395 257
L 396 257
L 398 256
L 399 256
L 400 255
L 401 254
L 402 254
L 404 254
L 405 253
L 406 253
L 407 252
L 408 252
L 409 252
L 411 252
L 412 251
L 413 250
L 414 250
L 415 250
L 417 249
L 418 249
L 419 249
L 420 249
L 421 248
L 422 248
L 424 248
L 425 247
L 426 247
L 427 247
L 428 246
L 430 245
L 431 245
L 432 244
L 433 244
L 434 243
L 435 242
L 437 241
L 438 240
L 439 240
L 440 239
L 441 238
L 443 237
L 444 236
L 445 236
L 446 236
L 447 234
L 449 234
L 450 234
L 451 233
L 452 233
L 453 232
L 454 231
L 456 229
L 457 228
L 458 226
L 459 225
L 460 224
L 462 223
L 463 223
L 464 215
L 465 215
L 466 214
L 467 214
L 469 214
L 470 213
L 471 213
L 472 213
L 473 213
L 475 212
L 476 212
L 477 212
L 478 212
L 479 211
L 480 211
L 482 209
L 483 208
L 484 207
L 485 206
L 486 205
L 488 204
L 489 204
L 490 202
L 491 201
L 492 197
L 494 197
L 495 196
L 496 196
L 497 196
L 498 196
L 499 195
L 501 194
L 502 192
L 503 191
L 504 189
L 505 189
L 507 188
L 508 187
L 509 186
L 510 186
L 511 185
L 512 185
L 514 184
L 515 183
L 516 182
L 517 182
L 518 181
L 520 181
L 521 180
L 522 180
L 523 179
L 524 179
L 526 179
L 527 178
L 528 177
L 529 177
L 530 176
L 531 176
L 533 176
L 534 176
L 535 175
L 536 172
L 537 171
L 539 171
L 540 170
L 541 169
L 542 167
L 543 167
L 544 166
L 546 163
L 547 159
L 548 157
L 549 156
L 550 155
L 552 154
L 553 153
L 554 153
L 555 153
L 556 152
L 557 152
L 559 152
L 560 151
L 561 150
L 562 149
L 563 149
L 565 148
L 566 147
L 567 146
L 568 146
L 569 145
L 571 144
L 572 144
L 573 143
L 574 142
L 575 141
L 576 140
L 578 139
L 579 139
L 580 138
L 581 137
L 582 137
L 584 137
L 585 137
L 586 137
L 587 136
L 588 136
L 589 135
L 591 134
L 592 134
L 593 134
L 594 133
L 595 133
L 597 132
L 598 131
L 599 131
L 600 131
L 601 130
L 602 130
L 604 130
L 605 130
L 606 130
L 607 129
L 608 129
L 610 129
L 611 129
L 612 129
L 613 129
L 614 129
L 616 129
L 617 129
L 618 128
L 619 128
L 620 128
L 621 128
L 623 128
L 624 128
L 625 128
L 626 128
L 627 127
L 629 127
L 630 127
L 631 127
L 632 127
L 633 127
L 634 127
L 636 126
L 637 126
L 638 126
L 639 126
L 640 126
L 642 126
L 643 126
L 644 126
L 741 120
L 742 119
L 743 118
L 745 118
L 746 116
L 747 116
L 748 114
L 749 113
L 751 111
L 752 110
L 753 110
L 754 110
L 755 109
L 756 108
L 758 108
L 759 108
L 760 107
L 761 107
L 762 106
L 764 105
L 765 105
L 766 104
L 767 104
L 768 103
L 770 102
L 771 102
L 772 102
L 773 100
L 774 99
L 775 98
L 777 96
L 778 95
L 779 92
L 780 91
L 781 91
L 783 91
L 785 90
L 786 90
L 787 90
L 788 89
L 790 89
L 791 88
L 792 87
L 793 85
L 794 84
L 796 83
L 797 83
L 798 83
L 799 83
L 800 82
L 801 81
L 803 80
L 804 79
L 805 78
L 806 78
L 807 77
L 809 77
L 810 75
L 811 75
L 812 75
L 813 75
L 815 74
L 816 74
L 817 74
L 818 74
L 819 74
L 820 74
L 822 74
L 823 74
L 824 73
L 825 73
L 826 73
L 828 73
L 829 72
L 830 72
L 831 72
L 832 71
L 833 71
L 835 71
L 836 71
L 837 71
L 838 70
L 839 70
L 841 70
L 842 69
L 843 69
L 844 69
L 845 68
L 847 68
L 848 68
L 849 67
L 850 67
L 851 66
L 852 66
L 854 66
L 855 65
L 856 65
L 857 64
L 858 64
L 860 63
L 861 63
L 862 63
L 863 62
L 865 62
L 867 62
L 868 61
L 869 61
L 870 61
L 871 61
L 873 61
L 874 60
L 875 60
L 876 60
L 877 60
L 878 59
L 880 58
L 881 56
L 882 56
L 883 55
L 884 55
L 886 54
L 887 54
L 888 53
L 889 51
L 890 50
L 892 49
L 893 48
L 894 47
L 895 46
L 896 46
L 897 45
L 899 45
L 900 44
L 901 44
L 902 43
L 903 43
L 905 42
L 906 42
L 907 41
L 908 41
L 909 40
L 910 38
L 912 35
L 913 32
L 914 32
L 915 31
L 916 30
L 918 30
L 919 30
L 920 29
L 921 29
L 922 29
L 923 28
L 925 26
L 925 26
L 926 26
L 927 26
L 929 25
L 930 25
L 931 24
L 932 24
L 933 23
L 934 23
L 936 23
L 937 23
L 938 22
L 939 22
L 940 22
L 942 20
L 943 20
L 944 20
L 945 20
L 946 19
L 947 19
L 947 451
L 38 451
L 38 435" style="stroke-width:0;stroke:none;fill:rgba(0,116,217,0.1)"/><path  d="M 38 435
L 39 435
L 39 435
L 40 435
L 41 434
L 42 433
L 43 430
L 44 429
L 46 429
L 47 428
L 48 428
L 49 428
L 50 427
L 52 427
L 53 424
L 54 422
L 55 422
L 56 422
L 58 421
L 59 421
L 60 420
L 61 418
L 62 418
L 62 418
L 63 418
L 64 416
L 65 415
L 67 414
L 68 414
L 69 413
L 70 413
L 71 413
L 72 413
L 73 412
L 74 411
L 75 410
L 77 409
L 78 409
L 79 409
L 80 407
L 81 406
L 83 405
L 84 403
L 85 403
L 86 402
L 87 401
L 88 400
L 90 399
L 91 398
L 92 397
L 93 396
L 94 395
L 96 394
L 97 393
L 98 392
L 99 391
L 100 391
L 101 390
L 103 388
L 104 387
L 105 386
L 106 383
L 107 377
L 109 375
L 110 374
L 111 368
L 112 366
L 113 365
L 115 359
L 116 358
L 117 355
L 118 383
L 119 382
L 120 444
L 122 441
L 123 439
L 124 438
L 125 437
L 126 429
L 128 427
L 129 427
L 130 426
L 131 425
L 132 422
L 133 421
L 135 418
L 136 416
L 137 416
L 138 415
L 139 414
L 141 413
L 142 413
L 143 412
L 144 411
L 145 410
L 146 410
L 148 409
L 149 407
L 150 406
L 151 406
L 152 403
L 154 402
L 155 401
L 156 401
L 157 401
L 158 400
L 160 399
L 161 399
L 162 399
L 163 397
L 164 396
L 165 396
L 167 395
L 168 394
L 169 393
L 170 393
L 171 392
L 173 389
L 174 387
L 175 386
L 176 384
L 177 383
L 178 382
L 180 381
L 181 379
L 182 378
L 183 377
L 184 377
L 186 376
L 187 376
L 188 374
L 189 373
L 190 373
L 191 373
L 193 371
L 194 370
L 195 368
L 196 368
L 197 368
L 199 368
L 200 368
L 201 368
L 202 368
L 203 368
L 205 367
L 206 367
L 207 366
L 208 366
L 209 366
L 210 366
L 212 365
L 213 365
L 214 365
L 215 364
L 216 364
L 218 364
L 219 364
L 220 364
L 221 364
L 222 363
L 223 363
L 225 363
L 226 363
L 227 363
L 228 363
L 229 363
L 231 362
L 232 362
L 233 362
L 234 361
L 235 361
L 237 361
L 238 361
L 239 360
L 240 360
L 241 360
L 242 360
L 244 360
L 245 360
L 246 359
L 247 359
L 248 359
L 250 359
L 251 358
L 252 357
L 253 357
L 254 357
L 255 357
L 257 356
L 258 356
L 259 356
L 260 355
L 261 355
L 263 355
L 264 354
L 265 354
L 266 353
L 267 353
L 268 352
L 270 352
L 271 352
L 272 352
L 273 351
L 274 351
L 276 351
L 277 351
L 278 351
L 279 351
L 280 350
L 282 350
L 283 350
L 284 350
L 285 349
L 286 349
L 287 349
L 289 348
L 290 346
L 291 346
L 292 344
L 293 343
L 295 342
L 296 341
L 297 340
L 298 340
L 299 339
L 300 339
L 302 339
L 303 339
L 304 338
L 305 337
L 306 337
L 308 337
L 309 336
L 310 335
L 311 334
L 312 333
L 313 332
L 315 331
L 316 330
L 317 330
L 318 328
L 319 328
L 321 327
L 322 325
L 323 323
L 324 321
L 325 319
L 327 318
L 328 317
L 329 316
L 330 315
L 331 315
L 332 314
L 334 313
L 335 311
L 336 310
L 337 308
L 338 306
L 340 305
L 341 303
L 342 301
L 343 299
L 344 297
L 345 296
L 347 294
L 348 293
L 349 292
L 350 289
L 351 288
L 353 285
L 354 282
L 355 281
L 356 280
L 357 279
L 358 279
L 360 278
L 361 278
L 362 277
L 363 276
L 364 275
L 366 274
L 367 274
L 368 272
L 369 272
L 370 271
L 372 271
L 373 270
L 374 269
L 375 267
L 376 267
L 377 266
L 379 266
L 380 266
L 381 265
L 382 264
L 383 264
L 385 264
L 386 262
L 387 261
L 388 261
L 389 259
L 390 258
L 392 258
L 393 258
L 394 258
L 395 257
L 396 257
L 398 256
L 399 256
L 400 255
L 401 254
L 402 254
L 404 254
L 405 253
L 406 253
L 407 252
L 408 252
L 409 252
L 411 252
L 412 251
L 413 250
L 414 250
L 415 250
L 417 249
L 418 249
L 419 249
L 420 249
L 421 248
L 422 248
L 424 248
L 425 247
L 426 247
L 427 247
L 428 246
L 430 245
L 431 245
L 432 244
L 433 244
L 434 243
L 435 242
L 437 241
L 438 240
L 439 240
L 440 239
L 441 238
L 443 237
L 444 236
L 445 236
L 446 236
L 447 234
L 449 234
L 450 234
L 451 233
L 452 233
L 453 232
L 454 231
L 456 229
L 457 228
L 458 226
L 459 225
L 460 224
L 462 223
L 463 223
L 464 215
L 465 215
L 466 214
L 467 214
L 469 214
L 470 213
L 471 213
L 472 213
L 473 213
L 475 212
L 476 212
L 477 212
L 478 212
L 479 211
L 480 211
L 482 209
L 483 208
L 484 207
L 485 206
L 486 205
L 488 204
L 489 204
L 490 202
L 491 201
L 492 197
L 494 197
L 495 196
L 496 196
L 497 196
L 498 196
L 499 195
L 501 194
L 502 192
L 503 191
L 504 189
L 505 189
L 507 188
L 508 187
L 509 186
L 510 186
L 511 185
L 512 185
L 514 184
L 515 183
L 516 182
L 517 182
L 518 181
L 520 181
L 521 180
L 522 180
L 523 179
L 524 179
L 526 179
L 527 178
L 528 177
L 529 177
L 530 176
L 531 176
L 533 176
L 534 176
L 535 175
L 536 172
L 537 171
L 539 171
L 540 170
L 541 169
L 542 167
L 543 167
L 544 166
L 546 163
L 547 159
L 548 157
L 549 156
L 550 155
L 552 154
L 553 153
L 554 153
L 555 153
L 556 152
L 557 152
L 559 152
L 560 151
L 561 150
L 562 149
L 563 149
L 565 148
L 566 147
L 567 146
L 568 146
L 569 145
L 571 144
L 572 144
L 573 143
L 574 142
L 575 141
L 576 140
L 578 139
L 579 139
L 580 138
L 581 137
L 582 137
L 584 137
L 585 137
L 586 137
L 587 136
L 588 136
L 589 135
L 591 134
L 592 134
L 593 134
L 594 133
L 595 133
L 597 132
L 598 131
L 599 131
L 600 131
L 601 130
L 602 130
L 604 130
L 605 130
L 606 130
L 607 129
L 608 129
L 610 129
L 611 129
L 612 129
L 613 129
L 614 129
L 616 129
L 617 129
L 618 128
L 619 128
L 620 128
L 621 128
L 623 128
L 624 128
L 625 128
L 626 128
L 627 127
L 629 127
L 630 127
L 631 127
L 632 127
L 633 127
L 634 127
L 636 126
L 637 126
L 638 126
L 639 126
L 640 126
L 642 126
L 643 126
L 644 126
L 741 120
L 742 119
L 743 118
L 745 118
L 746 116
L 747 116
L 748 114
L 749 113
L 751 111
L 752 110
L 753 110
L 754 110
L 755 109
L 756 108
L 758 108
L 759 108
L 760 107
L 761 107
L 762 106
L 764 105
L 765 105
L 766 104
L 767 104
L 768 103
L 770 102
L 771 102
L 772 102
L 773 100
L 774 99
L 775 98
L 777 96
L 778 95
L 779 92
L 780 91
L 781 91
L 783 91
L 785 90
L 786 90
L 787 90
L 788 89
L 790 89
L 791 88
L 792 87
L 793 85
L 794 84
L 796 83
L 797 83
L 798 83
L 799 83
L 800 82
L 801 81
L 803 80
L 804 79
L 805 78
L 806 78
L 807 77
L 809 77
L 810 75
L 811 75
L 812 75
L 813 75
L 815 74
L 816 74
L 817 74
L 818 74
L 819 74
L 820 74
L 822 74
L 823 74
L 824 73
L 825 73
L 826 73
L 828 73
L 829 72
L 830 72
L 831 72
L 832 71
L 833 71
L 835 71
L 836 71
L 837 71
L 838 70
L 839 70
L 841 70
L 842 69
L 843 69
L 844 69
L 845 68
L 847 68
L 848 68
L 849 67
L 850 67
L 851 66
L 852 66
L 854 66
L 855 65
L 856 65
L 857 64
L 858 64
L 860 63
L 861 63
L 862 63
L 863 62
L 865 62
L 867 62
L 868 61
L 869 61
L 870 61
L 871 61
L 873 61
L 874 60
L 875 60
L 876 60
L 877 60
L 878 59
L 880 58
L 881 56
L 882 56
L 883 55
L 884 55
L 886 54
L 887 54
L 888 53
L 889 51
L 890 50
L 892 49
L 893 48
L 894 47
L 895 46
L 896 46
L 897 45
L 899 45
L 900 44
L 901 44
L 902 43
L 903 43
L 905 42
L 906 42
L 907 41
L 908 41
L 909 40
L 910 38
L 912 35
L 913 32
L 914 32
L 915 31
L 916 30
L 918 30
L 919 30
L 920 29
L 921 29
L 922 29
L 923 28
L 925 26
L 925 26
L 926 26
L 927 26
L 929 25
L 930 25
L 931 24
L 932 24
L 933 23
L 934 23
L 936 23
L 937 23
L 938 22
L 939 22
L 940 22
L 942 20
L 943 20
L 944 20
L 945 20
L 946 19
L 947 19" style="stroke-width:1;stroke:rgba(0,116,217,1.0);fill:none"/></svg>